
 [
        {
            "Codigo": 1, "nombre": "Virgil", "direccion":"Portoviejo",
            "contacto": {"nombre": "Frenkie", "relacion": "primo"},
            "conexiones":
            [
                {"ubicacion":"Quito", "lugar":"casa"},
                {"ubicacion":"Chone", "lugar":"Trabajo", "telefono":"0968152074"}
            ]
        }
        ,

        {
            "Codigo": 2, "nombre": "Matthijs", "direccion":"Quevedo",
            "conexiones":
            [
                {"ubicacion":"Pichincha", "lugar":"Trabajo"}
            ]
        }             
        ,

        {
            "Codigo": 3, "nombre": "Van Persie", "direccion":"Cuenca",
            "contacto": {"nombre": "Arjen", "relacion": "compañero"},
            "conexiones":
            [
                {"ubicacion":"Guayaquil", "lugar":"casa"},
                {"ubicacion":"Vinces", "lugar":"casa", "telefono":"0968878956"}
            ]
        }
   ]
